…
Below is a table summarizing the number of items ordered from aisle. In
total, there are 134 aisles, with fresh vegetables and fresh fruits
holding the most items ordered by far.

``` r
instacart %>% 
  count(aisle) %>% 
  arrange(desc(n))
```

    ## # A tibble: 134 × 2
    ##    aisle                              n
    ##    <chr>                          <int>
    ##  1 fresh vegetables              150609
    ##  2 fresh fruits                  150473
    ##  3 packaged vegetables fruits     78493
    ##  4 yogurt                         55240
    ##  5 packaged cheese                41699
    ##  6 water seltzer sparkling water  36617
    ##  7 milk                           32644
    ##  8 chips pretzels                 31269
    ##  9 soy lactosefree                26240
    ## 10 bread                          23635
    ## # … with 124 more rows
…
    ## Rows: 35 Columns: 1443
    ## ── Column specification ────────────────────────────────────────────────────────
    ## Delimiter: ","
    ## chr    (1): day
    ## dbl (1442): week, day_id, activity.1, activity.2, activity.3, activity.4, ac...
    ## 
    ## ℹ Use `spec()` to retrieve the full column specification for this data.
    ## ℹ Specify the column types or set `show_col_types = FALSE` to quiet this message.

``` r
accel_data
```

    ## # A tibble: 50,400 × 6
    ##     week day_id day       minute activities weekday_or_weekend
    ##    <dbl>  <dbl> <chr>      <int>      <dbl> <fct>             
    ##  1     1      1 Friday         1       88.4 weekday           
    ##  2     1      2 Monday         1        1   weekday           
    ##  3     1      3 Saturday       1        1   weekend           
    ##  4     1      4 Sunday         1        1   weekend           
    ##  5     1      5 Thursday       1       47.4 weekday           
    ##  6     1      6 Tuesday        1       64.8 weekday           
    ##  7     1      7 Wednesday      1       71.1 weekday           
    ##  8     2      8 Friday         1      675   weekday           
    ##  9     2      9 Monday         1      291   weekday           
    ## 10     2     10 Saturday       1       64   weekend           
    ## # … with 50,390 more rows
…
``` r
totals_table = 
  accel_data %>% group_by(week, day) %>%
  summarize(total = sum(activities))
```

    ## `summarise()` has grouped output by 'week'. You can override using the
    ## `.groups` argument.

``` r
totals_table
```

    ## # A tibble: 35 × 3
    ## # Groups:   week [5]
    ##     week day         total
    ##    <dbl> <chr>       <dbl>
    ##  1     1 Friday    480543.
    ##  2     1 Monday     78828.
    ##  3     1 Saturday  376254 
    ##  4     1 Sunday    631105 
    ##  5     1 Thursday  355924.
    ##  6     1 Tuesday   307094.
    ##  7     1 Wednesday 340115.
    ##  8     2 Friday    568839 
    ##  9     2 Monday    295431 
    ## 10     2 Saturday  607175 
    ## # … with 25 more rows
